Réorganisation des données avancée - solution des exercices
…
Réorganisation des données avancée - solution des exercices

Retour à la page d’accueil

Exercice 1:

Créez une nouvelle colonne (blade.ratio) avec le ratio de blade.length.mm et total.leaf.length.mm

mutate(expt1, blade.ratio=blade.length.mm/total.leaf.length.mm)

## # A tibble: 957 x 16
##    plant_nb genotype background temperature fluctuation day.length vernalization
##       <dbl> <chr>    <chr>            <dbl> <chr>            <dbl> <chr>        
##  1        1 Col Ama  Col                 12 Con                 16 NV           
##  2        2 Col Ama  Col                 12 Con                 16 NV           
##  3        3 Col Ama  Col                 12 Con                 16 NV           
##  4        4 Col Ama  Col                 12 Con                 16 NV           
##  5        5 Col Ama  Col                 12 Con                 16 NV           
##  6        6 Col Ama  Col                 12 Con                 16 NV           
##  7        7 Col Ama  Col                 12 Con                 16 NV           
##  8        8 Col Ama  Col                 12 Con                 16 NV           
##  9        1 Col Ama  Col                 12 Con                  8 NV           
## 10        2 Col Ama  Col                 12 Con                  8 NV           
## # … with 947 more rows, and 9 more variables: survival.bolt <chr>, bolt <chr>,
## #   days.to.bolt <dbl>, days.to.flower <dbl>, rosette.leaf.num <dbl>,
## #   cauline.leaf.num <dbl>, blade.length.mm <dbl>, total.leaf.length.mm <dbl>,
## #   blade.ratio <dbl>
…
