Solution de l’examen terminal : Introduction à la bioinformatique pour la biologie végétale
…
Pour vérifier si l’effet du stade de développement de la silique sur l’expression de DOG1 est observé pour tous les génotypes, mesurez la moyenne de l’expression normalisée de DOG1 aux deux stades de développement de la silique pour chaque génotype, et ce uniquement pour des plantes ayant poussé en jours long à température élevée.

Aide : Pour cela, commencez par filtrer les observations pour garder la condition de maturation “SW”. Groupez les échantillons en fonction de l’écotype et du stade de développement de la silique. Et enfin calculez la moyenne de l’expression de DOG1 pour chaque groupe.

expt2 <-expt1 %>% #création d'un nouvel objet pour voir en entier le tableau contenant les moyennes
  filter(SeedMaturation == "SW") %>%
  group_by(Ecotype, SiliqueDevelopmentalStage) %>% # permet de grouper les plantes par Ecotype et SiliqueDevelopmentalStage
  summarise(mean.DOG1.expression = mean(DOG1_normControl)) #permet d'obtenir la moyennne de l'expression de DOG1 pour chaque groupe

## `summarise()` regrouping output by 'Ecotype' (override with `.groups` argument)

expt2

## # A tibble: 24 x 3
## # Groups:   Ecotype [12]
##    Ecotype SiliqueDevelopmentalStage mean.DOG1.expression
##    <chr>   <chr>                                    <dbl>
##  1 Bil-7   Early                                   -9.04 
##  2 Bil-7   Late                                    -2.34 
##  3 Ct-1    Early                                   -2.44 
##  4 Ct-1    Late                                    -0.299
##  5 Cvi-0   Early                                   -4.70 
##  6 Cvi-0   Late                                    -1.86 
##  7 Edi-0   Early                                   -6.39 
##  8 Edi-0   Late                                    -0.668
##  9 Fei-0   Early                                   -4.66 
## 10 Fei-0   Late                                    -0.847
## # … with 14 more rows
…
